{
 "argv": [
  "/home/ad/abelat/tharen/.conda/envs/map/bin/python",
  "-m",
  "ipykernel_launcher",
  "-f",
  "{connection_file}"
 ],
 "display_name": "map",
 "language": "python",
 "env": {
  "PYTHONPATH":"/work/OT/biomass/tharen/.conda/envs/map/lib/otb/python",
  "OTB_APPLICATION_PATH":"/work/OT/biomass/tharen/.conda/envs/map/lib/otb/applications",
  "LD_LIBRARY_PATH":"/work/OT/biomass/tharen/.conda/envs/map/lib64"
 }
}
